4740 Project
…
Data Preproccessing

Checking for missing values, casting types for classification, ensuring clean data.frame

#Dataset is complete, No missing data
sum(missing)

## [1] 0

#removing file name column ('label' column acts as dependent var)
df <- select(music.dat, -filename)
df$label <- as.factor(df$label)
tibble(df)

## # A tibble: 1,000 x 29
##    tempo beats chroma_stft   rmse spectral_centro spectral_bandwi rolloff
##    <dbl> <dbl>       <dbl>  <dbl>            <dbl>            <dbl>   <dbl>
##  1 103.     50       0.380 0.248             2117.            1957.   4196.
##  2  95.7    44       0.306 0.113             1156.            1498.   2170.
##  3 152.     75       0.253 0.152             1331.            1974.   2900.
##  4 185.     91       0.269 0.119             1361.            1568.   2740.
##  5 161.     74       0.391 0.138             1811.            2052.   3928.
##  6 108.     51       0.357 0.162             2068.            2034.   4231.
##  7 161.     80       0.375 0.110             2340.            2257.   4973.
##  8 152.     74       0.431 0.196             1947.            1980.   3956.
##  9  92.3    45       0.291 0.0892            1110.            1463.   2244.
## 10 152.     70       0.329 0.0670            1172.            1706.   2345.
## #  with 990 more rows, and 22 more variables: zero_crossing_rate <dbl>,
## #   mfcc1 <dbl>, mfcc2 <dbl>, mfcc3 <dbl>, mfcc4 <dbl>, mfcc5 <dbl>,
## #   mfcc6 <dbl>, mfcc7 <dbl>, mfcc8 <dbl>, mfcc9 <dbl>, mfcc10 <dbl>,
## #   mfcc11 <dbl>, mfcc12 <dbl>, mfcc13 <dbl>, mfcc14 <dbl>, mfcc15 <dbl>,
## #   mfcc16 <dbl>, mfcc17 <dbl>, mfcc18 <dbl>, mfcc19 <dbl>, mfcc20 <dbl>,
## #   label <fct>
…
